[gd_resource type="AnimatedTexture" load_steps=57 format=2]

[ext_resource path="res://Assets/Tutorial/debuff/debuff  4.png" type="Texture" id=1]
[ext_resource path="res://Assets/Tutorial/debuff/debuff  5.png" type="Texture" id=2]
[ext_resource path="res://Assets/Tutorial/debuff/debuff  6.png" type="Texture" id=3]
[ext_resource path="res://Assets/Tutorial/debuff/debuff  7.png" type="Texture" id=4]
[ext_resource path="res://Assets/Tutorial/debuff/debuff  8.png" type="Texture" id=5]
[ext_resource path="res://Assets/Tutorial/debuff/debuff  9.png" type="Texture" id=6]
[ext_resource path="res://Assets/Tutorial/debuff/debuff 10.png" type="Texture" id=7]
[ext_resource path="res://Assets/Tutorial/debuff/debuff 11.png" type="Texture" id=8]
[ext_resource path="res://Assets/Tutorial/debuff/debuff 12.png" type="Texture" id=9]
[ext_resource path="res://Assets/Tutorial/debuff/debuff 13.png" type="Texture" id=10]
[ext_resource path="res://Assets/Tutorial/debuff/debuff 14.png" type="Texture" id=11]
[ext_resource path="res://Assets/Tutorial/debuff/debuff 15.png" type="Texture" id=12]
[ext_resource path="res://Assets/Tutorial/debuff/debuff 16.png" type="Texture" id=13]
[ext_resource path="res://Assets/Tutorial/debuff/debuff 17.png" type="Texture" id=14]
[ext_resource path="res://Assets/Tutorial/debuff/debuff 18.png" type="Texture" id=15]
[ext_resource path="res://Assets/Tutorial/debuff/debuff 19.png" type="Texture" id=16]
[ext_resource path="res://Assets/Tutorial/debuff/debuff 20.png" type="Texture" id=17]
[ext_resource path="res://Assets/Tutorial/debuff/debuff 21.png" type="Texture" id=18]
[ext_resource path="res://Assets/Tutorial/debuff/debuff 22.png" type="Texture" id=19]
[ext_resource path="res://Assets/Tutorial/debuff/debuff 23.png" type="Texture" id=20]
[ext_resource path="res://Assets/Tutorial/debuff/debuff 24.png" type="Texture" id=21]
[ext_resource path="res://Assets/Tutorial/debuff/debuff 25.png" type="Texture" id=22]
[ext_resource path="res://Assets/Tutorial/debuff/debuff 26.png" type="Texture" id=23]
[ext_resource path="res://Assets/Tutorial/debuff/debuff 27.png" type="Texture" id=24]
[ext_resource path="res://Assets/Tutorial/debuff/debuff 28.png" type="Texture" id=25]
[ext_resource path="res://Assets/Tutorial/debuff/debuff 29.png" type="Texture" id=26]
[ext_resource path="res://Assets/Tutorial/debuff/debuff 30.png" type="Texture" id=27]
[ext_resource path="res://Assets/Tutorial/debuff/debuff 31.png" type="Texture" id=28]
[ext_resource path="res://Assets/Tutorial/debuff/debuff 32.png" type="Texture" id=29]
[ext_resource path="res://Assets/Tutorial/debuff/debuff 33.png" type="Texture" id=30]
[ext_resource path="res://Assets/Tutorial/debuff/debuff 34.png" type="Texture" id=31]
[ext_resource path="res://Assets/Tutorial/debuff/debuff 35.png" type="Texture" id=32]
[ext_resource path="res://Assets/Tutorial/debuff/debuff 36.png" type="Texture" id=33]
[ext_resource path="res://Assets/Tutorial/debuff/debuff 37.png" type="Texture" id=34]
[ext_resource path="res://Assets/Tutorial/debuff/debuff 38.png" type="Texture" id=35]
[ext_resource path="res://Assets/Tutorial/debuff/debuff 39.png" type="Texture" id=36]
[ext_resource path="res://Assets/Tutorial/debuff/debuff 40.png" type="Texture" id=37]
[ext_resource path="res://Assets/Tutorial/debuff/debuff 41.png" type="Texture" id=38]
[ext_resource path="res://Assets/Tutorial/debuff/debuff 42.png" type="Texture" id=39]
[ext_resource path="res://Assets/Tutorial/debuff/debuff 43.png" type="Texture" id=40]
[ext_resource path="res://Assets/Tutorial/debuff/debuff 44.png" type="Texture" id=41]
[ext_resource path="res://Assets/Tutorial/debuff/debuff 45.png" type="Texture" id=42]
[ext_resource path="res://Assets/Tutorial/debuff/debuff 46.png" type="Texture" id=43]
[ext_resource path="res://Assets/Tutorial/debuff/debuff 47.png" type="Texture" id=44]
[ext_resource path="res://Assets/Tutorial/debuff/debuff 48.png" type="Texture" id=45]
[ext_resource path="res://Assets/Tutorial/debuff/debuff 49.png" type="Texture" id=46]
[ext_resource path="res://Assets/Tutorial/debuff/debuff 50.png" type="Texture" id=47]
[ext_resource path="res://Assets/Tutorial/debuff/debuff 51.png" type="Texture" id=48]
[ext_resource path="res://Assets/Tutorial/debuff/debuff 52.png" type="Texture" id=49]
[ext_resource path="res://Assets/Tutorial/debuff/debuff 53.png" type="Texture" id=50]
[ext_resource path="res://Assets/Tutorial/debuff/debuff 54.png" type="Texture" id=51]
[ext_resource path="res://Assets/Tutorial/debuff/debuff 55.png" type="Texture" id=52]
[ext_resource path="res://Assets/Tutorial/debuff/debuff 56.png" type="Texture" id=53]
[ext_resource path="res://Assets/Tutorial/debuff/debuff 57.png" type="Texture" id=54]
[ext_resource path="res://Assets/Tutorial/debuff/debuff 58.png" type="Texture" id=55]
[ext_resource path="res://Assets/Tutorial/debuff/debuff 59.png" type="Texture" id=56]

[resource]
flags = 4
frames = 56
fps = 10.0
frame_0/texture = ExtResource( 1 )
frame_1/texture = ExtResource( 2 )
frame_1/delay_sec = 0.5
frame_2/texture = ExtResource( 3 )
frame_2/delay_sec = 0.0
frame_3/texture = ExtResource( 4 )
frame_3/delay_sec = 0.0
frame_4/texture = ExtResource( 5 )
frame_4/delay_sec = 0.0
frame_5/texture = ExtResource( 6 )
frame_5/delay_sec = 0.0
frame_6/texture = ExtResource( 7 )
frame_6/delay_sec = 0.0
frame_7/texture = ExtResource( 8 )
frame_7/delay_sec = 0.0
frame_8/texture = ExtResource( 9 )
frame_8/delay_sec = 0.0
frame_9/texture = ExtResource( 10 )
frame_9/delay_sec = 0.0
frame_10/texture = ExtResource( 11 )
frame_10/delay_sec = 0.0
frame_11/texture = ExtResource( 12 )
frame_11/delay_sec = 0.0
frame_12/texture = ExtResource( 13 )
frame_12/delay_sec = 0.0
frame_13/texture = ExtResource( 14 )
frame_13/delay_sec = 0.0
frame_14/texture = ExtResource( 15 )
frame_14/delay_sec = 0.0
frame_15/texture = ExtResource( 16 )
frame_15/delay_sec = 0.0
frame_16/texture = ExtResource( 17 )
frame_16/delay_sec = 0.0
frame_17/texture = ExtResource( 18 )
frame_17/delay_sec = 0.0
frame_18/texture = ExtResource( 19 )
frame_18/delay_sec = 0.0
frame_19/texture = ExtResource( 20 )
frame_19/delay_sec = 0.0
frame_20/texture = ExtResource( 21 )
frame_20/delay_sec = 0.0
frame_21/texture = ExtResource( 22 )
frame_21/delay_sec = 0.0
frame_22/texture = ExtResource( 23 )
frame_22/delay_sec = 0.0
frame_23/texture = ExtResource( 24 )
frame_23/delay_sec = 0.0
frame_24/texture = ExtResource( 25 )
frame_24/delay_sec = 0.0
frame_25/texture = ExtResource( 26 )
frame_25/delay_sec = 0.0
frame_26/texture = ExtResource( 27 )
frame_26/delay_sec = 0.0
frame_27/texture = ExtResource( 28 )
frame_27/delay_sec = 0.0
frame_28/texture = ExtResource( 29 )
frame_28/delay_sec = 0.0
frame_29/texture = ExtResource( 30 )
frame_29/delay_sec = 0.0
frame_30/texture = ExtResource( 31 )
frame_30/delay_sec = 0.0
frame_31/texture = ExtResource( 32 )
frame_31/delay_sec = 0.0
frame_32/texture = ExtResource( 33 )
frame_32/delay_sec = 0.0
frame_33/texture = ExtResource( 34 )
frame_33/delay_sec = 0.0
frame_34/texture = ExtResource( 35 )
frame_34/delay_sec = 0.0
frame_35/texture = ExtResource( 36 )
frame_35/delay_sec = 0.0
frame_36/texture = ExtResource( 37 )
frame_36/delay_sec = 0.0
frame_37/texture = ExtResource( 38 )
frame_37/delay_sec = 0.0
frame_38/texture = ExtResource( 39 )
frame_38/delay_sec = 0.0
frame_39/texture = ExtResource( 40 )
frame_39/delay_sec = 0.0
frame_40/texture = ExtResource( 41 )
frame_40/delay_sec = 0.0
frame_41/texture = ExtResource( 42 )
frame_41/delay_sec = 0.0
frame_42/texture = ExtResource( 43 )
frame_42/delay_sec = 0.0
frame_43/texture = ExtResource( 44 )
frame_43/delay_sec = 0.0
frame_44/texture = ExtResource( 45 )
frame_44/delay_sec = 0.0
frame_45/texture = ExtResource( 46 )
frame_45/delay_sec = 0.0
frame_46/texture = ExtResource( 47 )
frame_46/delay_sec = 0.0
frame_47/texture = ExtResource( 48 )
frame_47/delay_sec = 0.0
frame_48/texture = ExtResource( 49 )
frame_48/delay_sec = 0.0
frame_49/texture = ExtResource( 50 )
frame_49/delay_sec = 0.0
frame_50/texture = ExtResource( 51 )
frame_50/delay_sec = 0.0
frame_51/texture = ExtResource( 52 )
frame_51/delay_sec = 0.0
frame_52/texture = ExtResource( 53 )
frame_52/delay_sec = 0.0
frame_53/texture = ExtResource( 54 )
frame_53/delay_sec = 0.0
frame_54/texture = ExtResource( 55 )
frame_54/delay_sec = 0.0
frame_55/texture = ExtResource( 56 )
frame_55/delay_sec = 0.5
