[gd_scene load_steps=3 format=2]

[ext_resource path="res://Prefabs/CardVariants/Default.tscn" type="PackedScene" id=1]
[ext_resource path="res://Assets/Cards/buff.png" type="Texture" id=2]

[node name="Buff" instance=ExtResource( 1 )]
Texture = ExtResource( 2 )
Type = 1
Value = 1
